module igcinfo

require (
	github.com/globalsign/mgo v0.0.0-20181015135952-eeefdecb41b8 // indirect
	github.com/go-stack/stack v1.8.0 // indirect
	github.com/golang/snappy v0.0.0-20180518054509-2e65f85255db // indirect
	github.com/marni/goigc v0.1.0
	github.com/mongodb/mongo-go-driver v0.0.16
	github.com/xdg/scram v0.0.0-20180814205039-7eeb5667e42c // indirect
	github.com/xdg/stringprep v1.0.0 // indirect
	golang.org/x/crypto v0.0.0-20181015023909-0c41d7ab0a0e // indirect
	golang.org/x/net v0.0.0-20181023162649-9b4f9f5ad519 // indirect
	golang.org/x/sync v0.0.0-20180314180146-1d60e4601c6f // indirect
	gopkg.in/mgo.v2 v2.0.0-20180705113604-9856a29383ce
)
